{
    "iopdbConfig": {
        "poolMin": 0,
        "poolMax": 10,
        "poolIncrement": 3,
        "poolTimeout": 300,
        "env": "dev",
        "rac_string": "(DESCRIPTION =(ADDRESS =(PROTOCAL =TCP)(HOST=cosiopdd-scan)(PORT =1521))(SERVER =DEDICATED)(SID=iopdd1) ))",
        "filePath": "./db_credential.json",
        "rac_enabled": "false"
    },
    "pgConfig": {
        "user": "iop5grptradm",
        "host": "txsliopsmdd1v.nss.vzwnet.com",
        "database": "fivegrptr",
        "password": "i095gr9tr6dm",
        "port": 5432,
        "poolMin": 0,
        "poolMax": 10,
        "poolIncrement": 3,
        "poolTimeout": 300
    },
    "app": {
        "port": 5027,
        "autherHeader": "Basic V00LSFOSPdfgfdggkdjfdjdsjk==",
        "authEnabled": false,
        "userRefreshInterval": 90000,
        "commonDataRefreshInterval": 8640000,
        "gcInterval": 360000,
        "pgRefreshInterval": 90000
    },
    "log": {
        "filePath": "./logs/iopdbservice.log",
        "level": "debug"
    },
    "iopdb": {
        "url": "http://localhost:8080/db/"
    },
    "siteService": {
        "url": "http://localhost:8080/site/"
    },
    "userService": {
        "url": "http://localhost:8080/user/"
    },
    "contactService": {
        "url": "http://localhost:8080/contact/"
    },
    "cacheServer": {
        "url": "http://localhost:8080/cache"
    },
    "itential": {
        "url": "http://10.136.208.59:3000/",
        "adminname":"admin@pronghorn",
        "admin":"admin"
    },
    "cacheTableData": {
        "serverUrl": "http://localhost:5504",
        "cronjobscheduletime": "13 09 * * *",
        "deleteCacheDataIntervalDays": "9"
    }
}